....
----------------------------------------------------------------------
Ran 4 tests in 0.000s
OK
Name               Stmts   Miss  Cover   Missing
------------------------------------------------
Diplomacy.py          77      0   100%
TestDiplomacy.py      30      0   100%
------------------------------------------------
TOTAL                107      0   100%
